^C:\USERS\JEONGSEONGHO\DOCUMENTS\VISUAL STUDIO 2015\PROJECTS\MAPLESTORY\MAPLESTORY\MAPLESTORY.RC
/D _UNICODE /D UNICODE /l"0x0409" /nologo /fo"RELEASE\MAPLESTORY.RES"   C:\USERS\JEONGSEONGHO\DOCUMENTS\VISUAL STUDIO 2015\PROJECTS\MAPLESTORY\MAPLESTORY\MAPLESTORY.RC
^C:\USERS\JEONGSEONGHO\DOCUMENTS\VISUAL STUDIO 2015\PROJECTS\MAPLESTORY - 복사본\MAPLESTORY\MAPLESTORY.RC
/D _UNICODE /D UNICODE /l"0x0409" /nologo /fo"RELEASE\MAPLESTORY.RES"   C:\USERS\JEONGSEONGHO\DOCUMENTS\VISUAL STUDIO 2015\PROJECTS\MAPLESTORY - 복사본\MAPLESTORY\MAPLESTORY.RC
^C:\USERS\JEONGSEONGHO\DOCUMENTS\VISUAL STUDIO 2015\PROJECTS\MAPLESTORY 시연회용\MAPLESTORY\MAPLESTORY.RC
/D _UNICODE /D UNICODE /l"0x0409" /nologo /fo"RELEASE\MAPLESTORY.RES"   C:\USERS\JEONGSEONGHO\DOCUMENTS\VISUAL STUDIO 2015\PROJECTS\MAPLESTORY 시연회용\MAPLESTORY\MAPLESTORY.RC
^C:\USERS\JEONGSEONGHO\DOCUMENTS\VISUAL STUDIO 2015\PROJECTS\90기 정성호 메이플스토리 모작\MAPLESTORY\MAPLESTORY.RC
/D _UNICODE /D UNICODE /l"0x0409" /nologo /fo"RELEASE\MAPLESTORY.RES"   C:\USERS\JEONGSEONGHO\DOCUMENTS\VISUAL STUDIO 2015\PROJECTS\90기 정성호 메이플스토리 모작\MAPLESTORY\MAPLESTORY.RC
^C:\USERS\JEONGSEONGHO\DOCUMENTS\VISUAL STUDIO 2015\PROJECTS\시연회 게임\90기 정성호 메이플스토리 모작\MAPLESTORY\MAPLESTORY.RC
/D _UNICODE /D UNICODE /l"0x0409" /nologo /fo"RELEASE\MAPLESTORY.RES"   C:\USERS\JEONGSEONGHO\DOCUMENTS\VISUAL STUDIO 2015\PROJECTS\시연회 게임\90기 정성호 메이플스토리 모작\MAPLESTORY\MAPLESTORY.RC
^C:\USERS\JEONGSEONGHO\DESKTOP\90기 정성호 메이플스토리 모작\MAPLESTORY\MAPLESTORY.RC
/D _UNICODE /D UNICODE /l"0x0409" /nologo /fo"RELEASE\MAPLESTORY.RES"  C:\USERS\JEONGSEONGHO\DESKTOP\90기 정성호 메이플스토리 모작\MAPLESTORY\MAPLESTORY.RC
