^C:\USERS\JEONGSEONGHO\DESKTOP\90기 정성호 메이플스토리 모작\MAPLESTORY\STDAFX.CPP
C:\USERS\JEONGSEONGHO\DESKTOP\90기 정성호 메이플스토리 모작\MAPLESTORY\X64\DEBUG\MAPLESTORY.PCH
C:\USERS\JEONGSEONGHO\DESKTOP\90기 정성호 메이플스토리 모작\MAPLESTORY\X64\DEBUG\VC142.PDB
C:\USERS\JEONGSEONGHO\DESKTOP\90기 정성호 메이플스토리 모작\MAPLESTORY\X64\DEBUG\VC142.IDB
C:\USERS\JEONGSEONGHO\DESKTOP\90기 정성호 메이플스토리 모작\MAPLESTORY\X64\DEBUG\STDAFX.OBJ
^C:\USERS\JEONGSEONGHO\DESKTOP\90기 정성호 메이플스토리 모작\MAPLESTORY\BLUEMUSHROOM.CPP|C:\USERS\JEONGSEONGHO\DESKTOP\90기 정성호 메이플스토리 모작\MAPLESTORY\BMPMGR.CPP|C:\USERS\JEONGSEONGHO\DESKTOP\90기 정성호 메이플스토리 모작\MAPLESTORY\BOSSDUNGEON.CPP|C:\USERS\JEONGSEONGHO\DESKTOP\90기 정성호 메이플스토리 모작\MAPLESTORY\BOSSMONSTER.CPP|C:\USERS\JEONGSEONGHO\DESKTOP\90기 정성호 메이플스토리 모작\MAPLESTORY\BOSSSKILL.CPP|C:\USERS\JEONGSEONGHO\DESKTOP\90기 정성호 메이플스토리 모작\MAPLESTORY\COLLISIONMGR.CPP|C:\USERS\JEONGSEONGHO\DESKTOP\90기 정성호 메이플스토리 모작\MAPLESTORY\DUNGEON.CPP|C:\USERS\JEONGSEONGHO\DESKTOP\90기 정성호 메이플스토리 모작\MAPLESTORY\DUNGEONTWO.CPP|C:\USERS\JEONGSEONGHO\DESKTOP\90기 정성호 메이플스토리 모작\MAPLESTORY\EFFECT.CPP|C:\USERS\JEONGSEONGHO\DESKTOP\90기 정성호 메이플스토리 모작\MAPLESTORY\INVEN.CPP|C:\USERS\JEONGSEONGHO\DESKTOP\90기 정성호 메이플스토리 모작\MAPLESTORY\ITEM.CPP|C:\USERS\JEONGSEONGHO\DESKTOP\90기 정성호 메이플스토리 모작\MAPLESTORY\KEYMGR.CPP|C:\USERS\JEONGSEONGHO\DESKTOP\90기 정성호 메이플스토리 모작\MAPLESTORY\LINE.CPP|C:\USERS\JEONGSEONGHO\DESKTOP\90기 정성호 메이플스토리 모작\MAPLESTORY\LINEMGR.CPP|C:\USERS\JEONGSEONGHO\DESKTOP\90기 정성호 메이플스토리 모작\MAPLESTORY\LOGO.CPP|C:\USERS\JEONGSEONGHO\DESKTOP\90기 정성호 메이플스토리 모작\MAPLESTORY\MAINGAME.CPP|C:\USERS\JEONGSEONGHO\DESKTOP\90기 정성호 메이플스토리 모작\MAPLESTORY\MAPEDIT.CPP|C:\USERS\JEONGSEONGHO\DESKTOP\90기 정성호 메이플스토리 모작\MAPLESTORY\MAPLESTORY.CPP|C:\USERS\JEONGSEONGHO\DESKTOP\90기 정성호 메이플스토리 모작\MAPLESTORY\MATHMGR.CPP|C:\USERS\JEONGSEONGHO\DESKTOP\90기 정성호 메이플스토리 모작\MAPLESTORY\MONSTER.CPP|C:\USERS\JEONGSEONGHO\DESKTOP\90기 정성호 메이플스토리 모작\MAPLESTORY\MOUSE.CPP|C:\USERS\JEONGSEONGHO\DESKTOP\90기 정성호 메이플스토리 모작\MAPLESTORY\MYBMP.CPP|C:\USERS\JEONGSEONGHO\DESKTOP\90기 정성호 메이플스토리 모작\MAPLESTORY\MYBUTTON.CPP|C:\USERS\JEONGSEONGHO\DESKTOP\90기 정성호 메이플스토리 모작\MAPLESTORY\MYMENU.CPP|C:\USERS\JEONGSEONGHO\DESKTOP\90기 정성호 메이플스토리 모작\MAPLESTORY\OBJ.CPP|C:\USERS\JEONGSEONGHO\DESKTOP\90기 정성호 메이플스토리 모작\MAPLESTORY\OBJMGR.CPP|C:\USERS\JEONGSEONGHO\DESKTOP\90기 정성호 메이플스토리 모작\MAPLESTORY\PLAYER.CPP|C:\USERS\JEONGSEONGHO\DESKTOP\90기 정성호 메이플스토리 모작\MAPLESTORY\SCENE.CPP|C:\USERS\JEONGSEONGHO\DESKTOP\90기 정성호 메이플스토리 모작\MAPLESTORY\SCENEMGR.CPP|C:\USERS\JEONGSEONGHO\DESKTOP\90기 정성호 메이플스토리 모작\MAPLESTORY\SCROLLMGR.CPP|C:\USERS\JEONGSEONGHO\DESKTOP\90기 정성호 메이플스토리 모작\MAPLESTORY\SHOP.CPP|C:\USERS\JEONGSEONGHO\DESKTOP\90기 정성호 메이플스토리 모작\MAPLESTORY\SKILL.CPP|C:\USERS\JEONGSEONGHO\DESKTOP\90기 정성호 메이플스토리 모작\MAPLESTORY\SOUNDMGR.CPP|C:\USERS\JEONGSEONGHO\DESKTOP\90기 정성호 메이플스토리 모작\MAPLESTORY\TILE.CPP|C:\USERS\JEONGSEONGHO\DESKTOP\90기 정성호 메이플스토리 모작\MAPLESTORY\TILEMGR.CPP|C:\USERS\JEONGSEONGHO\DESKTOP\90기 정성호 메이플스토리 모작\MAPLESTORY\TITLE.CPP|C:\USERS\JEONGSEONGHO\DESKTOP\90기 정성호 메이플스토리 모작\MAPLESTORY\TOWN.CPP|C:\USERS\JEONGSEONGHO\DESKTOP\90기 정성호 메이플스토리 모작\MAPLESTORY\UI.CPP
C:\USERS\JEONGSEONGHO\DESKTOP\90기 정성호 메이플스토리 모작\MAPLESTORY\X64\DEBUG\VC142.PDB
C:\USERS\JEONGSEONGHO\DESKTOP\90기 정성호 메이플스토리 모작\MAPLESTORY\X64\DEBUG\VC142.IDB
C:\USERS\JEONGSEONGHO\DESKTOP\90기 정성호 메이플스토리 모작\MAPLESTORY\X64\DEBUG\MAPLESTORY.OBJ
C:\USERS\JEONGSEONGHO\DESKTOP\90기 정성호 메이플스토리 모작\MAPLESTORY\X64\DEBUG\MAPEDIT.OBJ
C:\USERS\JEONGSEONGHO\DESKTOP\90기 정성호 메이플스토리 모작\MAPLESTORY\X64\DEBUG\MAINGAME.OBJ
C:\USERS\JEONGSEONGHO\DESKTOP\90기 정성호 메이플스토리 모작\MAPLESTORY\X64\DEBUG\LOGO.OBJ
C:\USERS\JEONGSEONGHO\DESKTOP\90기 정성호 메이플스토리 모작\MAPLESTORY\X64\DEBUG\LINEMGR.OBJ
C:\USERS\JEONGSEONGHO\DESKTOP\90기 정성호 메이플스토리 모작\MAPLESTORY\X64\DEBUG\LINE.OBJ
C:\USERS\JEONGSEONGHO\DESKTOP\90기 정성호 메이플스토리 모작\MAPLESTORY\X64\DEBUG\KEYMGR.OBJ
C:\USERS\JEONGSEONGHO\DESKTOP\90기 정성호 메이플스토리 모작\MAPLESTORY\X64\DEBUG\DUNGEON.OBJ
C:\USERS\JEONGSEONGHO\DESKTOP\90기 정성호 메이플스토리 모작\MAPLESTORY\X64\DEBUG\COLLISIONMGR.OBJ
C:\USERS\JEONGSEONGHO\DESKTOP\90기 정성호 메이플스토리 모작\MAPLESTORY\X64\DEBUG\BMPMGR.OBJ
C:\USERS\JEONGSEONGHO\DESKTOP\90기 정성호 메이플스토리 모작\MAPLESTORY\X64\DEBUG\SKILL.OBJ
C:\USERS\JEONGSEONGHO\DESKTOP\90기 정성호 메이플스토리 모작\MAPLESTORY\X64\DEBUG\SHOP.OBJ
C:\USERS\JEONGSEONGHO\DESKTOP\90기 정성호 메이플스토리 모작\MAPLESTORY\X64\DEBUG\ITEM.OBJ
C:\USERS\JEONGSEONGHO\DESKTOP\90기 정성호 메이플스토리 모작\MAPLESTORY\X64\DEBUG\INVEN.OBJ
C:\USERS\JEONGSEONGHO\DESKTOP\90기 정성호 메이플스토리 모작\MAPLESTORY\X64\DEBUG\EFFECT.OBJ
C:\USERS\JEONGSEONGHO\DESKTOP\90기 정성호 메이플스토리 모작\MAPLESTORY\X64\DEBUG\DUNGEONTWO.OBJ
C:\USERS\JEONGSEONGHO\DESKTOP\90기 정성호 메이플스토리 모작\MAPLESTORY\X64\DEBUG\BOSSMONSTER.OBJ
C:\USERS\JEONGSEONGHO\DESKTOP\90기 정성호 메이플스토리 모작\MAPLESTORY\X64\DEBUG\BOSSSKILL.OBJ
C:\USERS\JEONGSEONGHO\DESKTOP\90기 정성호 메이플스토리 모작\MAPLESTORY\X64\DEBUG\BOSSDUNGEON.OBJ
C:\USERS\JEONGSEONGHO\DESKTOP\90기 정성호 메이플스토리 모작\MAPLESTORY\X64\DEBUG\BLUEMUSHROOM.OBJ
C:\USERS\JEONGSEONGHO\DESKTOP\90기 정성호 메이플스토리 모작\MAPLESTORY\X64\DEBUG\UI.OBJ
C:\USERS\JEONGSEONGHO\DESKTOP\90기 정성호 메이플스토리 모작\MAPLESTORY\X64\DEBUG\TOWN.OBJ
C:\USERS\JEONGSEONGHO\DESKTOP\90기 정성호 메이플스토리 모작\MAPLESTORY\X64\DEBUG\TITLE.OBJ
C:\USERS\JEONGSEONGHO\DESKTOP\90기 정성호 메이플스토리 모작\MAPLESTORY\X64\DEBUG\TILEMGR.OBJ
C:\USERS\JEONGSEONGHO\DESKTOP\90기 정성호 메이플스토리 모작\MAPLESTORY\X64\DEBUG\TILE.OBJ
C:\USERS\JEONGSEONGHO\DESKTOP\90기 정성호 메이플스토리 모작\MAPLESTORY\X64\DEBUG\SOUNDMGR.OBJ
C:\USERS\JEONGSEONGHO\DESKTOP\90기 정성호 메이플스토리 모작\MAPLESTORY\X64\DEBUG\SCROLLMGR.OBJ
C:\USERS\JEONGSEONGHO\DESKTOP\90기 정성호 메이플스토리 모작\MAPLESTORY\X64\DEBUG\SCENEMGR.OBJ
C:\USERS\JEONGSEONGHO\DESKTOP\90기 정성호 메이플스토리 모작\MAPLESTORY\X64\DEBUG\SCENE.OBJ
C:\USERS\JEONGSEONGHO\DESKTOP\90기 정성호 메이플스토리 모작\MAPLESTORY\X64\DEBUG\PLAYER.OBJ
C:\USERS\JEONGSEONGHO\DESKTOP\90기 정성호 메이플스토리 모작\MAPLESTORY\X64\DEBUG\OBJMGR.OBJ
C:\USERS\JEONGSEONGHO\DESKTOP\90기 정성호 메이플스토리 모작\MAPLESTORY\X64\DEBUG\OBJ.OBJ
C:\USERS\JEONGSEONGHO\DESKTOP\90기 정성호 메이플스토리 모작\MAPLESTORY\X64\DEBUG\MYMENU.OBJ
C:\USERS\JEONGSEONGHO\DESKTOP\90기 정성호 메이플스토리 모작\MAPLESTORY\X64\DEBUG\MYBUTTON.OBJ
C:\USERS\JEONGSEONGHO\DESKTOP\90기 정성호 메이플스토리 모작\MAPLESTORY\X64\DEBUG\MYBMP.OBJ
C:\USERS\JEONGSEONGHO\DESKTOP\90기 정성호 메이플스토리 모작\MAPLESTORY\X64\DEBUG\MOUSE.OBJ
C:\USERS\JEONGSEONGHO\DESKTOP\90기 정성호 메이플스토리 모작\MAPLESTORY\X64\DEBUG\MONSTER.OBJ
C:\USERS\JEONGSEONGHO\DESKTOP\90기 정성호 메이플스토리 모작\MAPLESTORY\X64\DEBUG\MATHMGR.OBJ
^C:\USERS\JEONGSEONGHO\DESKTOP\90기 정성호 메이플스토리 모작\MAPLESTORY\BLUEMUSHROOM.CPP
C:\USERS\JEONGSEONGHO\DESKTOP\90기 정성호 메이플스토리 모작\MAPLESTORY\X64\DEBUG\VC142.PDB
^C:\USERS\JEONGSEONGHO\DESKTOP\90기 정성호 메이플스토리 모작\MAPLESTORY\BOSSDUNGEON.CPP
C:\USERS\JEONGSEONGHO\DESKTOP\90기 정성호 메이플스토리 모작\MAPLESTORY\X64\DEBUG\VC142.PDB
^C:\USERS\JEONGSEONGHO\DESKTOP\90기 정성호 메이플스토리 모작\MAPLESTORY\BOSSSKILL.CPP
C:\USERS\JEONGSEONGHO\DESKTOP\90기 정성호 메이플스토리 모작\MAPLESTORY\X64\DEBUG\VC142.PDB
^C:\USERS\JEONGSEONGHO\DESKTOP\90기 정성호 메이플스토리 모작\MAPLESTORY\BOSSMONSTER.CPP
C:\USERS\JEONGSEONGHO\DESKTOP\90기 정성호 메이플스토리 모작\MAPLESTORY\X64\DEBUG\VC142.PDB
^C:\USERS\JEONGSEONGHO\DESKTOP\90기 정성호 메이플스토리 모작\MAPLESTORY\DUNGEONTWO.CPP
C:\USERS\JEONGSEONGHO\DESKTOP\90기 정성호 메이플스토리 모작\MAPLESTORY\X64\DEBUG\VC142.PDB
^C:\USERS\JEONGSEONGHO\DESKTOP\90기 정성호 메이플스토리 모작\MAPLESTORY\EFFECT.CPP
C:\USERS\JEONGSEONGHO\DESKTOP\90기 정성호 메이플스토리 모작\MAPLESTORY\X64\DEBUG\VC142.PDB
^C:\USERS\JEONGSEONGHO\DESKTOP\90기 정성호 메이플스토리 모작\MAPLESTORY\INVEN.CPP
C:\USERS\JEONGSEONGHO\DESKTOP\90기 정성호 메이플스토리 모작\MAPLESTORY\X64\DEBUG\VC142.PDB
^C:\USERS\JEONGSEONGHO\DESKTOP\90기 정성호 메이플스토리 모작\MAPLESTORY\ITEM.CPP
C:\USERS\JEONGSEONGHO\DESKTOP\90기 정성호 메이플스토리 모작\MAPLESTORY\X64\DEBUG\VC142.PDB
^C:\USERS\JEONGSEONGHO\DESKTOP\90기 정성호 메이플스토리 모작\MAPLESTORY\SHOP.CPP
C:\USERS\JEONGSEONGHO\DESKTOP\90기 정성호 메이플스토리 모작\MAPLESTORY\X64\DEBUG\VC142.PDB
^C:\USERS\JEONGSEONGHO\DESKTOP\90기 정성호 메이플스토리 모작\MAPLESTORY\SKILL.CPP
C:\USERS\JEONGSEONGHO\DESKTOP\90기 정성호 메이플스토리 모작\MAPLESTORY\X64\DEBUG\VC142.PDB
^C:\USERS\JEONGSEONGHO\DESKTOP\90기 정성호 메이플스토리 모작\MAPLESTORY\BMPMGR.CPP
C:\USERS\JEONGSEONGHO\DESKTOP\90기 정성호 메이플스토리 모작\MAPLESTORY\X64\DEBUG\VC142.PDB
^C:\USERS\JEONGSEONGHO\DESKTOP\90기 정성호 메이플스토리 모작\MAPLESTORY\COLLISIONMGR.CPP
C:\USERS\JEONGSEONGHO\DESKTOP\90기 정성호 메이플스토리 모작\MAPLESTORY\X64\DEBUG\VC142.PDB
^C:\USERS\JEONGSEONGHO\DESKTOP\90기 정성호 메이플스토리 모작\MAPLESTORY\DUNGEON.CPP
C:\USERS\JEONGSEONGHO\DESKTOP\90기 정성호 메이플스토리 모작\MAPLESTORY\X64\DEBUG\VC142.PDB
^C:\USERS\JEONGSEONGHO\DESKTOP\90기 정성호 메이플스토리 모작\MAPLESTORY\KEYMGR.CPP
C:\USERS\JEONGSEONGHO\DESKTOP\90기 정성호 메이플스토리 모작\MAPLESTORY\X64\DEBUG\VC142.PDB
^C:\USERS\JEONGSEONGHO\DESKTOP\90기 정성호 메이플스토리 모작\MAPLESTORY\LINE.CPP
C:\USERS\JEONGSEONGHO\DESKTOP\90기 정성호 메이플스토리 모작\MAPLESTORY\X64\DEBUG\VC142.PDB
^C:\USERS\JEONGSEONGHO\DESKTOP\90기 정성호 메이플스토리 모작\MAPLESTORY\LINEMGR.CPP
C:\USERS\JEONGSEONGHO\DESKTOP\90기 정성호 메이플스토리 모작\MAPLESTORY\X64\DEBUG\VC142.PDB
^C:\USERS\JEONGSEONGHO\DESKTOP\90기 정성호 메이플스토리 모작\MAPLESTORY\LOGO.CPP
C:\USERS\JEONGSEONGHO\DESKTOP\90기 정성호 메이플스토리 모작\MAPLESTORY\X64\DEBUG\VC142.PDB
^C:\USERS\JEONGSEONGHO\DESKTOP\90기 정성호 메이플스토리 모작\MAPLESTORY\MAINGAME.CPP
C:\USERS\JEONGSEONGHO\DESKTOP\90기 정성호 메이플스토리 모작\MAPLESTORY\X64\DEBUG\VC142.PDB
^C:\USERS\JEONGSEONGHO\DESKTOP\90기 정성호 메이플스토리 모작\MAPLESTORY\MAPEDIT.CPP
C:\USERS\JEONGSEONGHO\DESKTOP\90기 정성호 메이플스토리 모작\MAPLESTORY\X64\DEBUG\VC142.PDB
^C:\USERS\JEONGSEONGHO\DESKTOP\90기 정성호 메이플스토리 모작\MAPLESTORY\MAPLESTORY.CPP
C:\USERS\JEONGSEONGHO\DESKTOP\90기 정성호 메이플스토리 모작\MAPLESTORY\X64\DEBUG\VC142.PDB
^C:\USERS\JEONGSEONGHO\DESKTOP\90기 정성호 메이플스토리 모작\MAPLESTORY\MATHMGR.CPP
C:\USERS\JEONGSEONGHO\DESKTOP\90기 정성호 메이플스토리 모작\MAPLESTORY\X64\DEBUG\VC142.PDB
^C:\USERS\JEONGSEONGHO\DESKTOP\90기 정성호 메이플스토리 모작\MAPLESTORY\MONSTER.CPP
C:\USERS\JEONGSEONGHO\DESKTOP\90기 정성호 메이플스토리 모작\MAPLESTORY\X64\DEBUG\VC142.PDB
^C:\USERS\JEONGSEONGHO\DESKTOP\90기 정성호 메이플스토리 모작\MAPLESTORY\MOUSE.CPP
C:\USERS\JEONGSEONGHO\DESKTOP\90기 정성호 메이플스토리 모작\MAPLESTORY\X64\DEBUG\VC142.PDB
^C:\USERS\JEONGSEONGHO\DESKTOP\90기 정성호 메이플스토리 모작\MAPLESTORY\MYBMP.CPP
C:\USERS\JEONGSEONGHO\DESKTOP\90기 정성호 메이플스토리 모작\MAPLESTORY\X64\DEBUG\VC142.PDB
^C:\USERS\JEONGSEONGHO\DESKTOP\90기 정성호 메이플스토리 모작\MAPLESTORY\MYBUTTON.CPP
C:\USERS\JEONGSEONGHO\DESKTOP\90기 정성호 메이플스토리 모작\MAPLESTORY\X64\DEBUG\VC142.PDB
^C:\USERS\JEONGSEONGHO\DESKTOP\90기 정성호 메이플스토리 모작\MAPLESTORY\MYMENU.CPP
C:\USERS\JEONGSEONGHO\DESKTOP\90기 정성호 메이플스토리 모작\MAPLESTORY\X64\DEBUG\VC142.PDB
^C:\USERS\JEONGSEONGHO\DESKTOP\90기 정성호 메이플스토리 모작\MAPLESTORY\OBJ.CPP
C:\USERS\JEONGSEONGHO\DESKTOP\90기 정성호 메이플스토리 모작\MAPLESTORY\X64\DEBUG\VC142.PDB
^C:\USERS\JEONGSEONGHO\DESKTOP\90기 정성호 메이플스토리 모작\MAPLESTORY\OBJMGR.CPP
C:\USERS\JEONGSEONGHO\DESKTOP\90기 정성호 메이플스토리 모작\MAPLESTORY\X64\DEBUG\VC142.PDB
^C:\USERS\JEONGSEONGHO\DESKTOP\90기 정성호 메이플스토리 모작\MAPLESTORY\PLAYER.CPP
C:\USERS\JEONGSEONGHO\DESKTOP\90기 정성호 메이플스토리 모작\MAPLESTORY\X64\DEBUG\VC142.PDB
^C:\USERS\JEONGSEONGHO\DESKTOP\90기 정성호 메이플스토리 모작\MAPLESTORY\SCENE.CPP
C:\USERS\JEONGSEONGHO\DESKTOP\90기 정성호 메이플스토리 모작\MAPLESTORY\X64\DEBUG\VC142.PDB
^C:\USERS\JEONGSEONGHO\DESKTOP\90기 정성호 메이플스토리 모작\MAPLESTORY\SCENEMGR.CPP
C:\USERS\JEONGSEONGHO\DESKTOP\90기 정성호 메이플스토리 모작\MAPLESTORY\X64\DEBUG\VC142.PDB
^C:\USERS\JEONGSEONGHO\DESKTOP\90기 정성호 메이플스토리 모작\MAPLESTORY\SCROLLMGR.CPP
C:\USERS\JEONGSEONGHO\DESKTOP\90기 정성호 메이플스토리 모작\MAPLESTORY\X64\DEBUG\VC142.PDB
^C:\USERS\JEONGSEONGHO\DESKTOP\90기 정성호 메이플스토리 모작\MAPLESTORY\SOUNDMGR.CPP
C:\USERS\JEONGSEONGHO\DESKTOP\90기 정성호 메이플스토리 모작\MAPLESTORY\X64\DEBUG\VC142.PDB
^C:\USERS\JEONGSEONGHO\DESKTOP\90기 정성호 메이플스토리 모작\MAPLESTORY\TILE.CPP
C:\USERS\JEONGSEONGHO\DESKTOP\90기 정성호 메이플스토리 모작\MAPLESTORY\X64\DEBUG\VC142.PDB
^C:\USERS\JEONGSEONGHO\DESKTOP\90기 정성호 메이플스토리 모작\MAPLESTORY\TILEMGR.CPP
C:\USERS\JEONGSEONGHO\DESKTOP\90기 정성호 메이플스토리 모작\MAPLESTORY\X64\DEBUG\VC142.PDB
^C:\USERS\JEONGSEONGHO\DESKTOP\90기 정성호 메이플스토리 모작\MAPLESTORY\TITLE.CPP
C:\USERS\JEONGSEONGHO\DESKTOP\90기 정성호 메이플스토리 모작\MAPLESTORY\X64\DEBUG\VC142.PDB
^C:\USERS\JEONGSEONGHO\DESKTOP\90기 정성호 메이플스토리 모작\MAPLESTORY\TOWN.CPP
C:\USERS\JEONGSEONGHO\DESKTOP\90기 정성호 메이플스토리 모작\MAPLESTORY\X64\DEBUG\VC142.PDB
^C:\USERS\JEONGSEONGHO\DESKTOP\90기 정성호 메이플스토리 모작\MAPLESTORY\UI.CPP
C:\USERS\JEONGSEONGHO\DESKTOP\90기 정성호 메이플스토리 모작\MAPLESTORY\X64\DEBUG\VC142.PDB
